{
  "project_info": {
    "project_number": "1064995679506",
    "firebase_url": "https://security-22c09.firebaseio.com",
    "project_id": "security-22c09",
    "storage_bucket": "security-22c09.appspot.com"
  },
  "client": [
    {
      "client_info": {
        "mobilesdk_app_id": "1:1064995679506:android:5a5ccf252dc0d1ef5d97cb",
        "android_client_info": {
          "package_name": "com.security.security_client"
        }
      },
      "oauth_client": [
        {
          "client_id": "1064995679506-828lvertv9ec95t12bb062ftti8qs9k8.apps.googleusercontent.com",
          "client_type": 1,
          "android_info": {
            "package_name": "com.security.security_client",
            "certificate_hash": "d6a888d573a7bdb1fa8dd9ac248cfa4f238ab8cf"
          }
        },
        {
          "client_id": "1064995679506-n3eebgcb7kn6ch65eerhh41jul8qd7ji.apps.googleusercontent.com",
          "client_type": 3
        }
      ],
      "api_key": [
        {
          "current_key": "AIzaSyDZy6eP-WyqN2RwlGZnR0gmygVT2NjT_ZQ"
        }
      ],
      "services": {
        "appinvite_service": {
          "other_platform_oauth_client": [
            {
              "client_id": "1064995679506-n3eebgcb7kn6ch65eerhh41jul8qd7ji.apps.googleusercontent.com",
              "client_type": 3
            }
          ]
        }
      }
    },
    {
      "client_info": {
        "mobilesdk_app_id": "1:1064995679506:android:51e9bc023bc8799e5d97cb",
        "android_client_info": {
          "package_name": "com.security.security_client_app"
        }
      },
      "oauth_client": [
        {
          "client_id": "1064995679506-n3eebgcb7kn6ch65eerhh41jul8qd7ji.apps.googleusercontent.com",
          "client_type": 3
        }
      ],
      "api_key": [
        {
          "current_key": "AIzaSyDZy6eP-WyqN2RwlGZnR0gmygVT2NjT_ZQ"
        }
      ],
      "services": {
        "appinvite_service": {
          "other_platform_oauth_client": [
            {
              "client_id": "1064995679506-n3eebgcb7kn6ch65eerhh41jul8qd7ji.apps.googleusercontent.com",
              "client_type": 3
            }
          ]
        }
      }
    }
  ],
  "configuration_version": "1"
}